MA331-Coursework
…
Fig 5: Word Comparison of Marco Tempest & Michael
Shermer

Fig 5 is a plot of the Macro Tempest words vs.those of Michael
Shermer. Marcos words appear on the left side whereas Michaels appear
on the right. The words on the line represent the words both speakers
used, words like something,make, way are the common words that are
used by both speakers.

SENTIMENT ANALYSIS

a. Sentiment Score (bing function)

## # A tibble: 260 x 4
##    speaker       word        sentiment     n
##    <chr>         <chr>       <chr>     <int>
##  1 Marco Tempest achievement positive      1
##  2 Marco Tempest advantage   positive      1
##  3 Marco Tempest amazement   positive      1
##  4 Marco Tempest bad         negative      1
##  5 Marco Tempest beautiful   positive      1
##  6 Marco Tempest best        positive      1
##  7 Marco Tempest cheer       positive      1
##  8 Marco Tempest clever      positive      1
##  9 Marco Tempest comfortable positive      1
## 10 Marco Tempest cry         negative      1
## # ... with 250 more rows
…
